<?xml version="1.0" encoding="UTF-8" standalone="no"?><svg xmlns="http://www.w3.org/2000/svg" xmlns:xlink="http://www.w3.org/1999/xlink" contentScriptType="application/ecmascript" contentStyleType="text/css" height="543px" preserveAspectRatio="none" style="width:1326px;height:543px;" version="1.1" viewBox="0 0 1326 543" width="1326px" zoomAndPan="magnify"><defs><filter height="300%" id="f1hh29rbcywivw" width="300%" x="-1" y="-1"><feGaussianBlur result="blurOut" stdDeviation="2.0"/><feColorMatrix in="blurOut" result="blurOut2" type="matrix" values="0 0 0 0 0 0 0 0 0 0 0 0 0 0 0 0 0 0 .4 0"/><feOffset dx="4.0" dy="4.0" in="blurOut2" result="blurOut3"/><feBlend in="SourceGraphic" in2="blurOut3" mode="normal"/></filter></defs><g><!--MD5=[10ea673caf457862023e152271927b45]
cluster controller--><polygon fill="#DDDDDD" filter="url(#f1hh29rbcywivw)" points="177,16,260,16,267,38.2969,930,38.2969,930,99,177,99,177,16" style="stroke: #000000; stroke-width: 1.5;"/><line style="stroke: #000000; stroke-width: 1.5;" x1="177" x2="267" y1="38.2969" y2="38.2969"/><text fill="#000000" font-family="sans-serif" font-size="14" font-weight="bold" lengthAdjust="spacingAndGlyphs" textLength="77" x="181" y="30.9951">controller</text><!--MD5=[7579d5565d2521d5936cec86ed3dadee]
cluster service--><polygon fill="#DDDDDD" filter="url(#f1hh29rbcywivw)" points="209,124,273,124,280,146.2969,898,146.2969,898,207,209,207,209,124" style="stroke: #000000; stroke-width: 1.5;"/><line style="stroke: #000000; stroke-width: 1.5;" x1="209" x2="280" y1="146.2969" y2="146.2969"/><text fill="#000000" font-family="sans-serif" font-size="14" font-weight="bold" lengthAdjust="spacingAndGlyphs" textLength="58" x="213" y="138.9951">service</text><!--MD5=[96c0db2a9c600d900f6d951ada86b060]
cluster serviceimpl--><polygon fill="#DDDDDD" filter="url(#f1hh29rbcywivw)" points="159,232,255,232,262,254.2969,949,254.2969,949,315,159,315,159,232" style="stroke: #000000; stroke-width: 1.5;"/><line style="stroke: #000000; stroke-width: 1.5;" x1="159" x2="262" y1="254.2969" y2="254.2969"/><text fill="#000000" font-family="sans-serif" font-size="14" font-weight="bold" lengthAdjust="spacingAndGlyphs" textLength="90" x="163" y="246.9951">serviceimpl</text><!--MD5=[bd0bd4c41e0e5269e37474fd45a6abb7]
cluster repository--><polygon fill="#DDDDDD" filter="url(#f1hh29rbcywivw)" points="31,340,119,340,126,362.2969,1304,362.2969,1304,423,31,423,31,340" style="stroke: #000000; stroke-width: 1.5;"/><line style="stroke: #000000; stroke-width: 1.5;" x1="31" x2="126" y1="362.2969" y2="362.2969"/><text fill="#000000" font-family="sans-serif" font-size="14" font-weight="bold" lengthAdjust="spacingAndGlyphs" textLength="82" x="35" y="354.9951">repository</text><!--MD5=[5622bc4ba3bf2be5d17935065b98c5f9]
cluster dao--><polygon fill="#DDDDDD" filter="url(#f1hh29rbcywivw)" points="171,448,206,448,213,470.2969,1164,470.2969,1164,531,171,531,171,448" style="stroke: #000000; stroke-width: 1.5;"/><line style="stroke: #000000; stroke-width: 1.5;" x1="171" x2="213" y1="470.2969" y2="470.2969"/><text fill="#000000" font-family="sans-serif" font-size="14" font-weight="bold" lengthAdjust="spacingAndGlyphs" textLength="29" x="175" y="462.9951">dao</text><!--MD5=[183b58a1febe63e10e06d6a3e87cf86c]
cluster emailsystem--><polygon fill="#DDDDDD" filter="url(#f1hh29rbcywivw)" points="14,232,118,232,125,254.2969,140,254.2969,140,315,14,315,14,232" style="stroke: #000000; stroke-width: 1.5;"/><line style="stroke: #000000; stroke-width: 1.5;" x1="14" x2="125" y1="254.2969" y2="254.2969"/><text fill="#000000" font-family="sans-serif" font-size="14" font-weight="bold" lengthAdjust="spacingAndGlyphs" textLength="98" x="18" y="246.9951">emailsystem</text><!--MD5=[29f97d496cbdc4ec81664c6d94dc9bf6]
class UserController--><rect fill="#FEFECE" filter="url(#f1hh29rbcywivw)" height="48" id="UserController" style="stroke: #A80036; stroke-width: 1.5;" width="122" x="800" y="43"/><ellipse cx="815" cy="59" fill="#ADD1B2" rx="11" ry="11" style="stroke: #A80036; stroke-width: 1.0;"/><path d="M817.9688,64.6406 Q817.3906,64.9375 816.75,65.0859 Q816.1094,65.2344 815.4063,65.2344 Q812.9063,65.2344 811.5859,63.5859 Q810.2656,61.9375 810.2656,58.8125 Q810.2656,55.6875 811.5859,54.0313 Q812.9063,52.375 815.4063,52.375 Q816.1094,52.375 816.7578,52.5313 Q817.4063,52.6875 817.9688,52.9844 L817.9688,55.7031 Q817.3438,55.125 816.75,54.8516 Q816.1563,54.5781 815.5313,54.5781 Q814.1875,54.5781 813.5,55.6484 Q812.8125,56.7188 812.8125,58.8125 Q812.8125,60.9063 813.5,61.9766 Q814.1875,63.0469 815.5313,63.0469 Q816.1563,63.0469 816.75,62.7734 Q817.3438,62.5 817.9688,61.9219 L817.9688,64.6406 Z "/><text fill="#000000" font-family="sans-serif" font-size="12" lengthAdjust="spacingAndGlyphs" textLength="90" x="829" y="63.1543">UserController</text><line style="stroke: #A80036; stroke-width: 1.5;" x1="801" x2="921" y1="75" y2="75"/><line style="stroke: #A80036; stroke-width: 1.5;" x1="801" x2="921" y1="83" y2="83"/><!--MD5=[12d6fa7872854e86596dd270e811a6d3]
class ManagerController--><rect fill="#FEFECE" filter="url(#f1hh29rbcywivw)" height="48" id="ManagerController" style="stroke: #A80036; stroke-width: 1.5;" width="148" x="617" y="43"/><ellipse cx="632" cy="59" fill="#ADD1B2" rx="11" ry="11" style="stroke: #A80036; stroke-width: 1.0;"/><path d="M634.9688,64.6406 Q634.3906,64.9375 633.75,65.0859 Q633.1094,65.2344 632.4063,65.2344 Q629.9063,65.2344 628.5859,63.5859 Q627.2656,61.9375 627.2656,58.8125 Q627.2656,55.6875 628.5859,54.0313 Q629.9063,52.375 632.4063,52.375 Q633.1094,52.375 633.7578,52.5313 Q634.4063,52.6875 634.9688,52.9844 L634.9688,55.7031 Q634.3438,55.125 633.75,54.8516 Q633.1563,54.5781 632.5313,54.5781 Q631.1875,54.5781 630.5,55.6484 Q629.8125,56.7188 629.8125,58.8125 Q629.8125,60.9063 630.5,61.9766 Q631.1875,63.0469 632.5313,63.0469 Q633.1563,63.0469 633.75,62.7734 Q634.3438,62.5 634.9688,61.9219 L634.9688,64.6406 Z "/><text fill="#000000" font-family="sans-serif" font-size="12" lengthAdjust="spacingAndGlyphs" textLength="116" x="646" y="63.1543">ManagerController</text><line style="stroke: #A80036; stroke-width: 1.5;" x1="618" x2="764" y1="75" y2="75"/><line style="stroke: #A80036; stroke-width: 1.5;" x1="618" x2="764" y1="83" y2="83"/><!--MD5=[643b4f1320d97f348c6dda79ae05f403]
class AdministratorController--><rect fill="#FEFECE" filter="url(#f1hh29rbcywivw)" height="48" id="AdministratorController" style="stroke: #A80036; stroke-width: 1.5;" width="177" x="404.5" y="43"/><ellipse cx="419.5" cy="59" fill="#ADD1B2" rx="11" ry="11" style="stroke: #A80036; stroke-width: 1.0;"/><path d="M422.4688,64.6406 Q421.8906,64.9375 421.25,65.0859 Q420.6094,65.2344 419.9063,65.2344 Q417.4063,65.2344 416.0859,63.5859 Q414.7656,61.9375 414.7656,58.8125 Q414.7656,55.6875 416.0859,54.0313 Q417.4063,52.375 419.9063,52.375 Q420.6094,52.375 421.2578,52.5313 Q421.9063,52.6875 422.4688,52.9844 L422.4688,55.7031 Q421.8438,55.125 421.25,54.8516 Q420.6563,54.5781 420.0313,54.5781 Q418.6875,54.5781 418,55.6484 Q417.3125,56.7188 417.3125,58.8125 Q417.3125,60.9063 418,61.9766 Q418.6875,63.0469 420.0313,63.0469 Q420.6563,63.0469 421.25,62.7734 Q421.8438,62.5 422.4688,61.9219 L422.4688,64.6406 Z "/><text fill="#000000" font-family="sans-serif" font-size="12" lengthAdjust="spacingAndGlyphs" textLength="145" x="433.5" y="63.1543">AdministratorController</text><line style="stroke: #A80036; stroke-width: 1.5;" x1="405.5" x2="580.5" y1="75" y2="75"/><line style="stroke: #A80036; stroke-width: 1.5;" x1="405.5" x2="580.5" y1="83" y2="83"/><!--MD5=[2c8b070088f9e9a5dfda32644ea219c6]
class AuthenticationController--><rect fill="#FEFECE" filter="url(#f1hh29rbcywivw)" height="48" id="AuthenticationController" style="stroke: #A80036; stroke-width: 1.5;" width="185" x="184.5" y="43"/><ellipse cx="199.5" cy="59" fill="#ADD1B2" rx="11" ry="11" style="stroke: #A80036; stroke-width: 1.0;"/><path d="M202.4688,64.6406 Q201.8906,64.9375 201.25,65.0859 Q200.6094,65.2344 199.9063,65.2344 Q197.4063,65.2344 196.0859,63.5859 Q194.7656,61.9375 194.7656,58.8125 Q194.7656,55.6875 196.0859,54.0313 Q197.4063,52.375 199.9063,52.375 Q200.6094,52.375 201.2578,52.5313 Q201.9063,52.6875 202.4688,52.9844 L202.4688,55.7031 Q201.8438,55.125 201.25,54.8516 Q200.6563,54.5781 200.0313,54.5781 Q198.6875,54.5781 198,55.6484 Q197.3125,56.7188 197.3125,58.8125 Q197.3125,60.9063 198,61.9766 Q198.6875,63.0469 200.0313,63.0469 Q200.6563,63.0469 201.25,62.7734 Q201.8438,62.5 202.4688,61.9219 L202.4688,64.6406 Z "/><text fill="#000000" font-family="sans-serif" font-size="12" lengthAdjust="spacingAndGlyphs" textLength="153" x="213.5" y="63.1543">AuthenticationController</text><line style="stroke: #A80036; stroke-width: 1.5;" x1="185.5" x2="368.5" y1="75" y2="75"/><line style="stroke: #A80036; stroke-width: 1.5;" x1="185.5" x2="368.5" y1="83" y2="83"/><!--MD5=[e4ac4745f81aec2db60ad4ddae80b659]
class UserService--><rect fill="#FEFECE" filter="url(#f1hh29rbcywivw)" height="48" id="UserService" style="stroke: #A80036; stroke-width: 1.5;" width="106" x="784" y="151"/><ellipse cx="799" cy="167" fill="#B4A7E5" rx="11" ry="11" style="stroke: #A80036; stroke-width: 1.0;"/><path d="M794.9219,162.7656 L794.9219,160.6094 L802.3125,160.6094 L802.3125,162.7656 L799.8438,162.7656 L799.8438,170.8438 L802.3125,170.8438 L802.3125,173 L794.9219,173 L794.9219,170.8438 L797.3906,170.8438 L797.3906,162.7656 L794.9219,162.7656 Z "/><text fill="#000000" font-family="sans-serif" font-size="12" font-style="italic" lengthAdjust="spacingAndGlyphs" textLength="74" x="813" y="171.1543">UserService</text><line style="stroke: #A80036; stroke-width: 1.5;" x1="785" x2="889" y1="183" y2="183"/><line style="stroke: #A80036; stroke-width: 1.5;" x1="785" x2="889" y1="191" y2="191"/><!--MD5=[e827a55ec4af4b8b354bccd01f2cdda5]
class ManagerService--><rect fill="#FEFECE" filter="url(#f1hh29rbcywivw)" height="48" id="ManagerService" style="stroke: #A80036; stroke-width: 1.5;" width="132" x="617" y="151"/><ellipse cx="632" cy="167" fill="#B4A7E5" rx="11" ry="11" style="stroke: #A80036; stroke-width: 1.0;"/><path d="M627.9219,162.7656 L627.9219,160.6094 L635.3125,160.6094 L635.3125,162.7656 L632.8438,162.7656 L632.8438,170.8438 L635.3125,170.8438 L635.3125,173 L627.9219,173 L627.9219,170.8438 L630.3906,170.8438 L630.3906,162.7656 L627.9219,162.7656 Z "/><text fill="#000000" font-family="sans-serif" font-size="12" font-style="italic" lengthAdjust="spacingAndGlyphs" textLength="100" x="646" y="171.1543">ManagerService</text><line style="stroke: #A80036; stroke-width: 1.5;" x1="618" x2="748" y1="183" y2="183"/><line style="stroke: #A80036; stroke-width: 1.5;" x1="618" x2="748" y1="191" y2="191"/><!--MD5=[f2b58483070f47bc519fb09257fe31d0]
class AdministratorService--><rect fill="#FEFECE" filter="url(#f1hh29rbcywivw)" height="48" id="AdministratorService" style="stroke: #A80036; stroke-width: 1.5;" width="161" x="420.5" y="151"/><ellipse cx="435.5" cy="167" fill="#B4A7E5" rx="11" ry="11" style="stroke: #A80036; stroke-width: 1.0;"/><path d="M431.4219,162.7656 L431.4219,160.6094 L438.8125,160.6094 L438.8125,162.7656 L436.3438,162.7656 L436.3438,170.8438 L438.8125,170.8438 L438.8125,173 L431.4219,173 L431.4219,170.8438 L433.8906,170.8438 L433.8906,162.7656 L431.4219,162.7656 Z "/><text fill="#000000" font-family="sans-serif" font-size="12" font-style="italic" lengthAdjust="spacingAndGlyphs" textLength="129" x="449.5" y="171.1543">AdministratorService</text><line style="stroke: #A80036; stroke-width: 1.5;" x1="421.5" x2="580.5" y1="183" y2="183"/><line style="stroke: #A80036; stroke-width: 1.5;" x1="421.5" x2="580.5" y1="191" y2="191"/><!--MD5=[b07be2b600772d055921457a51a4b081]
class AuthenticationService--><rect fill="#FEFECE" filter="url(#f1hh29rbcywivw)" height="48" id="AuthenticationService" style="stroke: #A80036; stroke-width: 1.5;" width="169" x="216.5" y="151"/><ellipse cx="231.5" cy="167" fill="#B4A7E5" rx="11" ry="11" style="stroke: #A80036; stroke-width: 1.0;"/><path d="M227.4219,162.7656 L227.4219,160.6094 L234.8125,160.6094 L234.8125,162.7656 L232.3438,162.7656 L232.3438,170.8438 L234.8125,170.8438 L234.8125,173 L227.4219,173 L227.4219,170.8438 L229.8906,170.8438 L229.8906,162.7656 L227.4219,162.7656 Z "/><text fill="#000000" font-family="sans-serif" font-size="12" font-style="italic" lengthAdjust="spacingAndGlyphs" textLength="137" x="245.5" y="171.1543">AuthenticationService</text><line style="stroke: #A80036; stroke-width: 1.5;" x1="217.5" x2="384.5" y1="183" y2="183"/><line style="stroke: #A80036; stroke-width: 1.5;" x1="217.5" x2="384.5" y1="191" y2="191"/><!--MD5=[824c1a2fecd5f590d2e9b6246f258c59]
class UserServiceImpl--><rect fill="#FEFECE" filter="url(#f1hh29rbcywivw)" height="48" id="UserServiceImpl" style="stroke: #A80036; stroke-width: 1.5;" width="131" x="809.5" y="259"/><ellipse cx="824.5" cy="275" fill="#ADD1B2" rx="11" ry="11" style="stroke: #A80036; stroke-width: 1.0;"/><path d="M827.4688,280.6406 Q826.8906,280.9375 826.25,281.0859 Q825.6094,281.2344 824.9063,281.2344 Q822.4063,281.2344 821.0859,279.5859 Q819.7656,277.9375 819.7656,274.8125 Q819.7656,271.6875 821.0859,270.0313 Q822.4063,268.375 824.9063,268.375 Q825.6094,268.375 826.2578,268.5313 Q826.9063,268.6875 827.4688,268.9844 L827.4688,271.7031 Q826.8438,271.125 826.25,270.8516 Q825.6563,270.5781 825.0313,270.5781 Q823.6875,270.5781 823,271.6484 Q822.3125,272.7188 822.3125,274.8125 Q822.3125,276.9063 823,277.9766 Q823.6875,279.0469 825.0313,279.0469 Q825.6563,279.0469 826.25,278.7734 Q826.8438,278.5 827.4688,277.9219 L827.4688,280.6406 Z "/><text fill="#000000" font-family="sans-serif" font-size="12" lengthAdjust="spacingAndGlyphs" textLength="99" x="838.5" y="279.1543">UserServiceImpl</text><line style="stroke: #A80036; stroke-width: 1.5;" x1="810.5" x2="939.5" y1="291" y2="291"/><line style="stroke: #A80036; stroke-width: 1.5;" x1="810.5" x2="939.5" y1="299" y2="299"/><!--MD5=[b52b302a09ea600917eb10e4b7951e01]
class ManagerServiceImpl--><rect fill="#FEFECE" filter="url(#f1hh29rbcywivw)" height="48" id="ManagerServiceImpl" style="stroke: #A80036; stroke-width: 1.5;" width="157" x="617.5" y="259"/><ellipse cx="632.5" cy="275" fill="#ADD1B2" rx="11" ry="11" style="stroke: #A80036; stroke-width: 1.0;"/><path d="M635.4688,280.6406 Q634.8906,280.9375 634.25,281.0859 Q633.6094,281.2344 632.9063,281.2344 Q630.4063,281.2344 629.0859,279.5859 Q627.7656,277.9375 627.7656,274.8125 Q627.7656,271.6875 629.0859,270.0313 Q630.4063,268.375 632.9063,268.375 Q633.6094,268.375 634.2578,268.5313 Q634.9063,268.6875 635.4688,268.9844 L635.4688,271.7031 Q634.8438,271.125 634.25,270.8516 Q633.6563,270.5781 633.0313,270.5781 Q631.6875,270.5781 631,271.6484 Q630.3125,272.7188 630.3125,274.8125 Q630.3125,276.9063 631,277.9766 Q631.6875,279.0469 633.0313,279.0469 Q633.6563,279.0469 634.25,278.7734 Q634.8438,278.5 635.4688,277.9219 L635.4688,280.6406 Z "/><text fill="#000000" font-family="sans-serif" font-size="12" lengthAdjust="spacingAndGlyphs" textLength="125" x="646.5" y="279.1543">ManagerServiceImpl</text><line style="stroke: #A80036; stroke-width: 1.5;" x1="618.5" x2="773.5" y1="291" y2="291"/><line style="stroke: #A80036; stroke-width: 1.5;" x1="618.5" x2="773.5" y1="299" y2="299"/><!--MD5=[ee347d9447477e8c31d07e6457e6f81d]
class AdministratorServiceImpl--><rect fill="#FEFECE" filter="url(#f1hh29rbcywivw)" height="48" id="AdministratorServiceImpl" style="stroke: #A80036; stroke-width: 1.5;" width="186" x="396" y="259"/><ellipse cx="411" cy="275" fill="#ADD1B2" rx="11" ry="11" style="stroke: #A80036; stroke-width: 1.0;"/><path d="M413.9688,280.6406 Q413.3906,280.9375 412.75,281.0859 Q412.1094,281.2344 411.4063,281.2344 Q408.9063,281.2344 407.5859,279.5859 Q406.2656,277.9375 406.2656,274.8125 Q406.2656,271.6875 407.5859,270.0313 Q408.9063,268.375 411.4063,268.375 Q412.1094,268.375 412.7578,268.5313 Q413.4063,268.6875 413.9688,268.9844 L413.9688,271.7031 Q413.3438,271.125 412.75,270.8516 Q412.1563,270.5781 411.5313,270.5781 Q410.1875,270.5781 409.5,271.6484 Q408.8125,272.7188 408.8125,274.8125 Q408.8125,276.9063 409.5,277.9766 Q410.1875,279.0469 411.5313,279.0469 Q412.1563,279.0469 412.75,278.7734 Q413.3438,278.5 413.9688,277.9219 L413.9688,280.6406 Z "/><text fill="#000000" font-family="sans-serif" font-size="12" lengthAdjust="spacingAndGlyphs" textLength="154" x="425" y="279.1543">AdministratorServiceImpl</text><line style="stroke: #A80036; stroke-width: 1.5;" x1="397" x2="581" y1="291" y2="291"/><line style="stroke: #A80036; stroke-width: 1.5;" x1="397" x2="581" y1="299" y2="299"/><!--MD5=[a273a88426c4376d67390181994bf865]
class AuthenticationServiceImpl--><rect fill="#FEFECE" filter="url(#f1hh29rbcywivw)" height="48" id="AuthenticationServiceImpl" style="stroke: #A80036; stroke-width: 1.5;" width="194" x="167" y="259"/><ellipse cx="182" cy="275" fill="#ADD1B2" rx="11" ry="11" style="stroke: #A80036; stroke-width: 1.0;"/><path d="M184.9688,280.6406 Q184.3906,280.9375 183.75,281.0859 Q183.1094,281.2344 182.4063,281.2344 Q179.9063,281.2344 178.5859,279.5859 Q177.2656,277.9375 177.2656,274.8125 Q177.2656,271.6875 178.5859,270.0313 Q179.9063,268.375 182.4063,268.375 Q183.1094,268.375 183.7578,268.5313 Q184.4063,268.6875 184.9688,268.9844 L184.9688,271.7031 Q184.3438,271.125 183.75,270.8516 Q183.1563,270.5781 182.5313,270.5781 Q181.1875,270.5781 180.5,271.6484 Q179.8125,272.7188 179.8125,274.8125 Q179.8125,276.9063 180.5,277.9766 Q181.1875,279.0469 182.5313,279.0469 Q183.1563,279.0469 183.75,278.7734 Q184.3438,278.5 184.9688,277.9219 L184.9688,280.6406 Z "/><text fill="#000000" font-family="sans-serif" font-size="12" lengthAdjust="spacingAndGlyphs" textLength="162" x="196" y="279.1543">AuthenticationServiceImpl</text><line style="stroke: #A80036; stroke-width: 1.5;" x1="168" x2="360" y1="291" y2="291"/><line style="stroke: #A80036; stroke-width: 1.5;" x1="168" x2="360" y1="299" y2="299"/><!--MD5=[093c210125347143eef5bb9199eae634]
class UserRepository--><rect fill="#FEFECE" filter="url(#f1hh29rbcywivw)" height="48" id="UserRepository" style="stroke: #A80036; stroke-width: 1.5;" width="127" x="280.5" y="367"/><ellipse cx="295.5" cy="383" fill="#B4A7E5" rx="11" ry="11" style="stroke: #A80036; stroke-width: 1.0;"/><path d="M291.4219,378.7656 L291.4219,376.6094 L298.8125,376.6094 L298.8125,378.7656 L296.3438,378.7656 L296.3438,386.8438 L298.8125,386.8438 L298.8125,389 L291.4219,389 L291.4219,386.8438 L293.8906,386.8438 L293.8906,378.7656 L291.4219,378.7656 Z "/><text fill="#000000" font-family="sans-serif" font-size="12" font-style="italic" lengthAdjust="spacingAndGlyphs" textLength="95" x="309.5" y="387.1543">UserRepository</text><line style="stroke: #A80036; stroke-width: 1.5;" x1="281.5" x2="406.5" y1="399" y2="399"/><line style="stroke: #A80036; stroke-width: 1.5;" x1="281.5" x2="406.5" y1="407" y2="407"/><!--MD5=[92a0a821d4a69608f6ec4b5426de1e8a]
class TicketRepository--><rect fill="#FEFECE" filter="url(#f1hh29rbcywivw)" height="48" id="TicketRepository" style="stroke: #A80036; stroke-width: 1.5;" width="135" x="1160.5" y="367"/><ellipse cx="1175.5" cy="383" fill="#B4A7E5" rx="11" ry="11" style="stroke: #A80036; stroke-width: 1.0;"/><path d="M1171.4219,378.7656 L1171.4219,376.6094 L1178.8125,376.6094 L1178.8125,378.7656 L1176.3438,378.7656 L1176.3438,386.8438 L1178.8125,386.8438 L1178.8125,389 L1171.4219,389 L1171.4219,386.8438 L1173.8906,386.8438 L1173.8906,378.7656 L1171.4219,378.7656 Z "/><text fill="#000000" font-family="sans-serif" font-size="12" font-style="italic" lengthAdjust="spacingAndGlyphs" textLength="103" x="1189.5" y="387.1543">TicketRepository</text><line style="stroke: #A80036; stroke-width: 1.5;" x1="1161.5" x2="1294.5" y1="399" y2="399"/><line style="stroke: #A80036; stroke-width: 1.5;" x1="1161.5" x2="1294.5" y1="407" y2="407"/><!--MD5=[c7c118c7ff9b24413b480120bfe25511]
class ManagerLocationRepository--><rect fill="#FEFECE" filter="url(#f1hh29rbcywivw)" height="48" id="ManagerLocationRepository" style="stroke: #A80036; stroke-width: 1.5;" width="206" x="39" y="367"/><ellipse cx="54" cy="383" fill="#B4A7E5" rx="11" ry="11" style="stroke: #A80036; stroke-width: 1.0;"/><path d="M49.9219,378.7656 L49.9219,376.6094 L57.3125,376.6094 L57.3125,378.7656 L54.8438,378.7656 L54.8438,386.8438 L57.3125,386.8438 L57.3125,389 L49.9219,389 L49.9219,386.8438 L52.3906,386.8438 L52.3906,378.7656 L49.9219,378.7656 Z "/><text fill="#000000" font-family="sans-serif" font-size="12" font-style="italic" lengthAdjust="spacingAndGlyphs" textLength="174" x="68" y="387.1543">ManagerLocationRepository</text><line style="stroke: #A80036; stroke-width: 1.5;" x1="40" x2="244" y1="399" y2="399"/><line style="stroke: #A80036; stroke-width: 1.5;" x1="40" x2="244" y1="407" y2="407"/><!--MD5=[b071f04f269d6c8381fbf3b952d7395d]
class LocationRepository--><rect fill="#FEFECE" filter="url(#f1hh29rbcywivw)" height="48" id="LocationRepository" style="stroke: #A80036; stroke-width: 1.5;" width="151" x="442.5" y="367"/><ellipse cx="457.5" cy="383" fill="#B4A7E5" rx="11" ry="11" style="stroke: #A80036; stroke-width: 1.0;"/><path d="M453.4219,378.7656 L453.4219,376.6094 L460.8125,376.6094 L460.8125,378.7656 L458.3438,378.7656 L458.3438,386.8438 L460.8125,386.8438 L460.8125,389 L453.4219,389 L453.4219,386.8438 L455.8906,386.8438 L455.8906,378.7656 L453.4219,378.7656 Z "/><text fill="#000000" font-family="sans-serif" font-size="12" font-style="italic" lengthAdjust="spacingAndGlyphs" textLength="119" x="471.5" y="387.1543">LocationRepository</text><line style="stroke: #A80036; stroke-width: 1.5;" x1="443.5" x2="592.5" y1="399" y2="399"/><line style="stroke: #A80036; stroke-width: 1.5;" x1="443.5" x2="592.5" y1="407" y2="407"/><!--MD5=[1e3e385da91986c3043b4b8c9f2254d8]
class ImageRepository--><rect fill="#FEFECE" filter="url(#f1hh29rbcywivw)" height="48" id="ImageRepository" style="stroke: #A80036; stroke-width: 1.5;" width="136" x="989" y="367"/><ellipse cx="1004" cy="383" fill="#B4A7E5" rx="11" ry="11" style="stroke: #A80036; stroke-width: 1.0;"/><path d="M999.9219,378.7656 L999.9219,376.6094 L1007.3125,376.6094 L1007.3125,378.7656 L1004.8438,378.7656 L1004.8438,386.8438 L1007.3125,386.8438 L1007.3125,389 L999.9219,389 L999.9219,386.8438 L1002.3906,386.8438 L1002.3906,378.7656 L999.9219,378.7656 Z "/><text fill="#000000" font-family="sans-serif" font-size="12" font-style="italic" lengthAdjust="spacingAndGlyphs" textLength="104" x="1018" y="387.1543">ImageRepository</text><line style="stroke: #A80036; stroke-width: 1.5;" x1="990" x2="1124" y1="399" y2="399"/><line style="stroke: #A80036; stroke-width: 1.5;" x1="990" x2="1124" y1="407" y2="407"/><!--MD5=[1006e51d41be7fc2f1c367c9ea767dfe]
class EventSlotRepository--><rect fill="#FEFECE" filter="url(#f1hh29rbcywivw)" height="48" id="EventSlotRepository" style="stroke: #A80036; stroke-width: 1.5;" width="157" x="796.5" y="367"/><ellipse cx="811.5" cy="383" fill="#B4A7E5" rx="11" ry="11" style="stroke: #A80036; stroke-width: 1.0;"/><path d="M807.4219,378.7656 L807.4219,376.6094 L814.8125,376.6094 L814.8125,378.7656 L812.3438,378.7656 L812.3438,386.8438 L814.8125,386.8438 L814.8125,389 L807.4219,389 L807.4219,386.8438 L809.8906,386.8438 L809.8906,378.7656 L807.4219,378.7656 Z "/><text fill="#000000" font-family="sans-serif" font-size="12" font-style="italic" lengthAdjust="spacingAndGlyphs" textLength="125" x="825.5" y="387.1543">EventSlotRepository</text><line style="stroke: #A80036; stroke-width: 1.5;" x1="797.5" x2="952.5" y1="399" y2="399"/><line style="stroke: #A80036; stroke-width: 1.5;" x1="797.5" x2="952.5" y1="407" y2="407"/><!--MD5=[504c34850afcae0fdc07025a86be15a9]
class EventRepository--><rect fill="#FEFECE" filter="url(#f1hh29rbcywivw)" height="48" id="EventRepository" style="stroke: #A80036; stroke-width: 1.5;" width="133" x="628.5" y="367"/><ellipse cx="643.5" cy="383" fill="#B4A7E5" rx="11" ry="11" style="stroke: #A80036; stroke-width: 1.0;"/><path d="M639.4219,378.7656 L639.4219,376.6094 L646.8125,376.6094 L646.8125,378.7656 L644.3438,378.7656 L644.3438,386.8438 L646.8125,386.8438 L646.8125,389 L639.4219,389 L639.4219,386.8438 L641.8906,386.8438 L641.8906,378.7656 L639.4219,378.7656 Z "/><text fill="#000000" font-family="sans-serif" font-size="12" font-style="italic" lengthAdjust="spacingAndGlyphs" textLength="101" x="657.5" y="387.1543">EventRepository</text><line style="stroke: #A80036; stroke-width: 1.5;" x1="629.5" x2="760.5" y1="399" y2="399"/><line style="stroke: #A80036; stroke-width: 1.5;" x1="629.5" x2="760.5" y1="407" y2="407"/><!--MD5=[6f49855a2f41b15b7be64856ff30349b]
class UserDAO--><rect fill="#FEFECE" filter="url(#f1hh29rbcywivw)" height="48" id="UserDAO" style="stroke: #A80036; stroke-width: 1.5;" width="87" x="380.5" y="475"/><ellipse cx="395.5" cy="491" fill="#B4A7E5" rx="11" ry="11" style="stroke: #A80036; stroke-width: 1.0;"/><path d="M391.4219,486.7656 L391.4219,484.6094 L398.8125,484.6094 L398.8125,486.7656 L396.3438,486.7656 L396.3438,494.8438 L398.8125,494.8438 L398.8125,497 L391.4219,497 L391.4219,494.8438 L393.8906,494.8438 L393.8906,486.7656 L391.4219,486.7656 Z "/><text fill="#000000" font-family="sans-serif" font-size="12" font-style="italic" lengthAdjust="spacingAndGlyphs" textLength="55" x="409.5" y="495.1543">UserDAO</text><line style="stroke: #A80036; stroke-width: 1.5;" x1="381.5" x2="466.5" y1="507" y2="507"/><line style="stroke: #A80036; stroke-width: 1.5;" x1="381.5" x2="466.5" y1="515" y2="515"/><!--MD5=[bcfed22b89f43e3c7b2c97b73fdba534]
class TicketDAO--><rect fill="#FEFECE" filter="url(#f1hh29rbcywivw)" height="48" id="TicketDAO" style="stroke: #A80036; stroke-width: 1.5;" width="95" x="1060.5" y="475"/><ellipse cx="1075.5" cy="491" fill="#B4A7E5" rx="11" ry="11" style="stroke: #A80036; stroke-width: 1.0;"/><path d="M1071.4219,486.7656 L1071.4219,484.6094 L1078.8125,484.6094 L1078.8125,486.7656 L1076.3438,486.7656 L1076.3438,494.8438 L1078.8125,494.8438 L1078.8125,497 L1071.4219,497 L1071.4219,494.8438 L1073.8906,494.8438 L1073.8906,486.7656 L1071.4219,486.7656 Z "/><text fill="#000000" font-family="sans-serif" font-size="12" font-style="italic" lengthAdjust="spacingAndGlyphs" textLength="63" x="1089.5" y="495.1543">TicketDAO</text><line style="stroke: #A80036; stroke-width: 1.5;" x1="1061.5" x2="1154.5" y1="507" y2="507"/><line style="stroke: #A80036; stroke-width: 1.5;" x1="1061.5" x2="1154.5" y1="515" y2="515"/><!--MD5=[68fcb957e35c2738a98a9f66530cc83b]
class ManagerLocationDAO--><rect fill="#FEFECE" filter="url(#f1hh29rbcywivw)" height="48" id="ManagerLocationDAO" style="stroke: #A80036; stroke-width: 1.5;" width="166" x="179" y="475"/><ellipse cx="194" cy="491" fill="#B4A7E5" rx="11" ry="11" style="stroke: #A80036; stroke-width: 1.0;"/><path d="M189.9219,486.7656 L189.9219,484.6094 L197.3125,484.6094 L197.3125,486.7656 L194.8438,486.7656 L194.8438,494.8438 L197.3125,494.8438 L197.3125,497 L189.9219,497 L189.9219,494.8438 L192.3906,494.8438 L192.3906,486.7656 L189.9219,486.7656 Z "/><text fill="#000000" font-family="sans-serif" font-size="12" font-style="italic" lengthAdjust="spacingAndGlyphs" textLength="134" x="208" y="495.1543">ManagerLocationDAO</text><line style="stroke: #A80036; stroke-width: 1.5;" x1="180" x2="344" y1="507" y2="507"/><line style="stroke: #A80036; stroke-width: 1.5;" x1="180" x2="344" y1="515" y2="515"/><!--MD5=[170a296d2e28c7555d2fc5b73eb1bdcd]
class LocationDAO--><rect fill="#FEFECE" filter="url(#f1hh29rbcywivw)" height="48" id="LocationDAO" style="stroke: #A80036; stroke-width: 1.5;" width="111" x="502.5" y="475"/><ellipse cx="517.5" cy="491" fill="#B4A7E5" rx="11" ry="11" style="stroke: #A80036; stroke-width: 1.0;"/><path d="M513.4219,486.7656 L513.4219,484.6094 L520.8125,484.6094 L520.8125,486.7656 L518.3438,486.7656 L518.3438,494.8438 L520.8125,494.8438 L520.8125,497 L513.4219,497 L513.4219,494.8438 L515.8906,494.8438 L515.8906,486.7656 L513.4219,486.7656 Z "/><text fill="#000000" font-family="sans-serif" font-size="12" font-style="italic" lengthAdjust="spacingAndGlyphs" textLength="79" x="531.5" y="495.1543">LocationDAO</text><line style="stroke: #A80036; stroke-width: 1.5;" x1="503.5" x2="612.5" y1="507" y2="507"/><line style="stroke: #A80036; stroke-width: 1.5;" x1="503.5" x2="612.5" y1="515" y2="515"/><!--MD5=[f12aa729a736fbd870d90d8b31594127]
class ImageDAO--><rect fill="#FEFECE" filter="url(#f1hh29rbcywivw)" height="48" id="ImageDAO" style="stroke: #A80036; stroke-width: 1.5;" width="96" x="929" y="475"/><ellipse cx="944" cy="491" fill="#B4A7E5" rx="11" ry="11" style="stroke: #A80036; stroke-width: 1.0;"/><path d="M939.9219,486.7656 L939.9219,484.6094 L947.3125,484.6094 L947.3125,486.7656 L944.8438,486.7656 L944.8438,494.8438 L947.3125,494.8438 L947.3125,497 L939.9219,497 L939.9219,494.8438 L942.3906,494.8438 L942.3906,486.7656 L939.9219,486.7656 Z "/><text fill="#000000" font-family="sans-serif" font-size="12" font-style="italic" lengthAdjust="spacingAndGlyphs" textLength="64" x="958" y="495.1543">ImageDAO</text><line style="stroke: #A80036; stroke-width: 1.5;" x1="930" x2="1024" y1="507" y2="507"/><line style="stroke: #A80036; stroke-width: 1.5;" x1="930" x2="1024" y1="515" y2="515"/><!--MD5=[6811ed88df7b4cb24d85ce8a1369107f]
class EventSlotDAO--><rect fill="#FEFECE" filter="url(#f1hh29rbcywivw)" height="48" id="EventSlotDAO" style="stroke: #A80036; stroke-width: 1.5;" width="117" x="776.5" y="475"/><ellipse cx="791.5" cy="491" fill="#B4A7E5" rx="11" ry="11" style="stroke: #A80036; stroke-width: 1.0;"/><path d="M787.4219,486.7656 L787.4219,484.6094 L794.8125,484.6094 L794.8125,486.7656 L792.3438,486.7656 L792.3438,494.8438 L794.8125,494.8438 L794.8125,497 L787.4219,497 L787.4219,494.8438 L789.8906,494.8438 L789.8906,486.7656 L787.4219,486.7656 Z "/><text fill="#000000" font-family="sans-serif" font-size="12" font-style="italic" lengthAdjust="spacingAndGlyphs" textLength="85" x="805.5" y="495.1543">EventSlotDAO</text><line style="stroke: #A80036; stroke-width: 1.5;" x1="777.5" x2="892.5" y1="507" y2="507"/><line style="stroke: #A80036; stroke-width: 1.5;" x1="777.5" x2="892.5" y1="515" y2="515"/><!--MD5=[d3fcc9d2a414ef8efecc2eaa6e66d1fd]
class EventDAO--><rect fill="#FEFECE" filter="url(#f1hh29rbcywivw)" height="48" id="EventDAO" style="stroke: #A80036; stroke-width: 1.5;" width="93" x="648.5" y="475"/><ellipse cx="663.5" cy="491" fill="#B4A7E5" rx="11" ry="11" style="stroke: #A80036; stroke-width: 1.0;"/><path d="M659.4219,486.7656 L659.4219,484.6094 L666.8125,484.6094 L666.8125,486.7656 L664.3438,486.7656 L664.3438,494.8438 L666.8125,494.8438 L666.8125,497 L659.4219,497 L659.4219,494.8438 L661.8906,494.8438 L661.8906,486.7656 L659.4219,486.7656 Z "/><text fill="#000000" font-family="sans-serif" font-size="12" font-style="italic" lengthAdjust="spacingAndGlyphs" textLength="61" x="677.5" y="495.1543">EventDAO</text><line style="stroke: #A80036; stroke-width: 1.5;" x1="649.5" x2="740.5" y1="507" y2="507"/><line style="stroke: #A80036; stroke-width: 1.5;" x1="649.5" x2="740.5" y1="515" y2="515"/><!--MD5=[37e2bf93b6e1c803faf1c4be12a2822d]
class EmailSystem--><rect fill="#FEFECE" filter="url(#f1hh29rbcywivw)" height="48" id="EmailSystem" style="stroke: #A80036; stroke-width: 1.5;" width="110" x="22" y="259"/><ellipse cx="37" cy="275" fill="#ADD1B2" rx="11" ry="11" style="stroke: #A80036; stroke-width: 1.0;"/><path d="M39.9688,280.6406 Q39.3906,280.9375 38.75,281.0859 Q38.1094,281.2344 37.4063,281.2344 Q34.9063,281.2344 33.5859,279.5859 Q32.2656,277.9375 32.2656,274.8125 Q32.2656,271.6875 33.5859,270.0313 Q34.9063,268.375 37.4063,268.375 Q38.1094,268.375 38.7578,268.5313 Q39.4063,268.6875 39.9688,268.9844 L39.9688,271.7031 Q39.3438,271.125 38.75,270.8516 Q38.1563,270.5781 37.5313,270.5781 Q36.1875,270.5781 35.5,271.6484 Q34.8125,272.7188 34.8125,274.8125 Q34.8125,276.9063 35.5,277.9766 Q36.1875,279.0469 37.5313,279.0469 Q38.1563,279.0469 38.75,278.7734 Q39.3438,278.5 39.9688,277.9219 L39.9688,280.6406 Z "/><text fill="#000000" font-family="sans-serif" font-size="12" lengthAdjust="spacingAndGlyphs" textLength="78" x="51" y="279.1543">EmailSystem</text><line style="stroke: #A80036; stroke-width: 1.5;" x1="23" x2="131" y1="291" y2="291"/><line style="stroke: #A80036; stroke-width: 1.5;" x1="23" x2="131" y1="299" y2="299"/><!--MD5=[24950bc54895f33afc2647af6e65f42d]
link UserController to UserService--><path d="M855.6139,91.2373 C852.0319,107.3565 847.3064,128.6212 843.5131,145.6911 " fill="none" id="UserController-&gt;UserService" style="stroke: #A80036; stroke-width: 1.0;"/><polygon fill="#A80036" points="842.3681,150.8436,848.2253,142.9257,843.4528,145.9627,840.4159,141.1902,842.3681,150.8436" style="stroke: #A80036; stroke-width: 1.0;"/><!--MD5=[926b5f7c24810c635fe090bedbb9f98a]
link UserService to UserServiceImpl--><path d="M845.5279,199.2373 C851.1995,215.3565 858.6815,236.6212 864.6876,253.6911 " fill="none" id="UserService-&gt;UserServiceImpl" style="stroke: #A80036; stroke-width: 1.0;"/><polygon fill="#A80036" points="866.5005,258.8436,867.2865,249.0262,864.8409,254.127,859.74,251.6815,866.5005,258.8436" style="stroke: #A80036; stroke-width: 1.0;"/><!--MD5=[ddc5caf5366443b26459afe1b0b1cf46]
link ManagerController to ManagerService--><path d="M689.2046,91.2373 C688.0106,107.3565 686.4355,128.6212 685.171,145.6911 " fill="none" id="ManagerController-&gt;ManagerService" style="stroke: #A80036; stroke-width: 1.0;"/><polygon fill="#A80036" points="684.7894,150.8436,689.4437,142.1639,685.159,145.8573,681.4656,141.5726,684.7894,150.8436" style="stroke: #A80036; stroke-width: 1.0;"/><!--MD5=[64ff8d683d38f7aa4cfeb9b9a09ad2e8]
link ManagerService to ManagerServiceImpl--><path d="M685.9175,199.2373 C687.8577,215.3565 690.4174,236.6212 692.4721,253.6911 " fill="none" id="ManagerService-&gt;ManagerServiceImpl" style="stroke: #A80036; stroke-width: 1.0;"/><polygon fill="#A80036" points="693.0923,258.8436,695.9877,249.43,692.4946,253.8795,688.0451,250.3863,693.0923,258.8436" style="stroke: #A80036; stroke-width: 1.0;"/><!--MD5=[1717cc0b628e1c95687445b34caacc3a]
link AdministratorController to AdministratorService--><path d="M494.7954,91.2373 C495.9894,107.3565 497.5645,128.6212 498.829,145.6911 " fill="none" id="AdministratorController-&gt;AdministratorService" style="stroke: #A80036; stroke-width: 1.0;"/><polygon fill="#A80036" points="499.2106,150.8436,502.5344,141.5726,498.841,145.8573,494.5563,142.1639,499.2106,150.8436" style="stroke: #A80036; stroke-width: 1.0;"/><!--MD5=[e90fa9d47fac70709eba2c7433e8e4de]
link AdministratorService to AdministratorServiceImpl--><path d="M498.307,199.2373 C496.5159,215.3565 494.1532,236.6212 492.2565,253.6911 " fill="none" id="AdministratorService-&gt;AdministratorServiceImpl" style="stroke: #A80036; stroke-width: 1.0;"/><polygon fill="#A80036" points="491.684,258.8436,496.6536,250.3405,492.2363,253.8742,488.7026,249.4568,491.684,258.8436" style="stroke: #A80036; stroke-width: 1.0;"/><!--MD5=[1f09062917c75ef3528743bf6d867e0b]
link AuthenticationController to AuthenticationService--><path d="M282.3861,91.2373 C285.9681,107.3565 290.6936,128.6212 294.4869,145.6911 " fill="none" id="AuthenticationController-&gt;AuthenticationService" style="stroke: #A80036; stroke-width: 1.0;"/><polygon fill="#A80036" points="295.6319,150.8436,297.5841,141.1902,294.5472,145.9627,289.7747,142.9257,295.6319,150.8436" style="stroke: #A80036; stroke-width: 1.0;"/><!--MD5=[154669a325298ffdd34ec70fd0646d9e]
link AuthenticationService to AuthenticationServiceImpl--><path d="M292.6965,199.2373 C287.1741,215.3565 279.889,236.6212 274.041,253.6911 " fill="none" id="AuthenticationService-&gt;AuthenticationServiceImpl" style="stroke: #A80036; stroke-width: 1.0;"/><polygon fill="#A80036" points="272.2758,258.8436,278.9769,251.6259,273.8964,254.1135,271.4087,249.033,272.2758,258.8436" style="stroke: #A80036; stroke-width: 1.0;"/><!--MD5=[a14ace2383ff0373fef183a77d142ce9]
reverse link EmailSystem to ManagerServiceImpl--><path d="M106.8337,255.3194 C123.603,241.67 145.7045,226.635 168.5,219.5 C212.3998,205.7594 537.988,207.8948 582.5,219.5 C611.7773,227.1332 641.5024,244.1736 663.185,258.6816 " fill="none" id="EmailSystem&lt;-ManagerServiceImpl" style="stroke: #A80036; stroke-width: 1.0;"/><polygon fill="#A80036" points="102.688,258.7541,112.1704,256.0926,106.5383,255.5642,107.0666,249.9321,102.688,258.7541" style="stroke: #A80036; stroke-width: 1.0;"/><!--MD5=[f0d7cf5f4ef1de4f8d1c5015c7db2d41]
reverse link EmailSystem to AdministratorServiceImpl--><path d="M106.8337,255.3194 C123.603,241.67 145.7045,226.635 168.5,219.5 C209.4308,206.6887 319.7507,209.6789 361.5,219.5 C393.9968,227.1445 427.6763,244.3853 452.254,258.9753 " fill="none" id="EmailSystem&lt;-AdministratorServiceImpl" style="stroke: #A80036; stroke-width: 1.0;"/><polygon fill="#A80036" points="102.688,258.7541,112.1704,256.0926,106.5383,255.5642,107.0666,249.9321,102.688,258.7541" style="stroke: #A80036; stroke-width: 1.0;"/><!--MD5=[ed39b0d6ef00cb99891a2a8897149ff8]
reverse link EmailSystem to UserServiceImpl--><path d="M106.8337,255.3194 C123.603,241.67 145.7045,226.635 168.5,219.5 C200.6296,209.4434 742.1608,210.1394 774.5,219.5 C801.0657,227.1895 827.3561,244.2272 846.3807,258.7199 " fill="none" id="EmailSystem&lt;-UserServiceImpl" style="stroke: #A80036; stroke-width: 1.0;"/><polygon fill="#A80036" points="102.688,258.7541,112.1704,256.0926,106.5383,255.5642,107.0666,249.9321,102.688,258.7541" style="stroke: #A80036; stroke-width: 1.0;"/><!--MD5=[6031b3f989603d8768c62ccecec86285]
link UserServiceImpl to UserRepository--><path d="M819.4501,307.0263 C810.4123,310.1735 801.0468,312.996 792,315 C632.3803,350.3587 580.4465,289.3533 425,340 C408.6763,345.3185 392.336,354.6503 378.6509,363.8901 " fill="none" id="UserServiceImpl-&gt;UserRepository" style="stroke: #A80036; stroke-width: 1.0;"/><polygon fill="#A80036" points="374.492,366.7501,384.1743,364.9463,378.6119,363.917,379.6412,358.3545,374.492,366.7501" style="stroke: #A80036; stroke-width: 1.0;"/><!--MD5=[2a4da4009acc47929e074c14e75f978c]
link UserServiceImpl to ImageRepository--><path d="M915.8444,307.2373 C944.2962,324.1208 982.2608,346.6493 1011.6514,364.0898 " fill="none" id="UserServiceImpl-&gt;ImageRepository" style="stroke: #A80036; stroke-width: 1.0;"/><polygon fill="#A80036" points="1016.292,366.8436,1010.5934,358.8108,1011.9921,364.292,1006.5109,365.6906,1016.292,366.8436" style="stroke: #A80036; stroke-width: 1.0;"/><!--MD5=[8178c0e66cc27d829d0728594fb93f95]
link UserServiceImpl to EventSlotRepository--><path d="M875,307.2373 C875,323.3565 875,344.6212 875,361.6911 " fill="none" id="UserServiceImpl-&gt;EventSlotRepository" style="stroke: #A80036; stroke-width: 1.0;"/><polygon fill="#A80036" points="875,366.8436,879,357.8436,875,361.8436,871,357.8436,875,366.8436" style="stroke: #A80036; stroke-width: 1.0;"/><!--MD5=[681f976127e766612bab2ec38e554717]
link UserServiceImpl to EventRepository--><path d="M834.3084,307.041 C817.2059,317.1764 797.1134,329.1243 779,340 C765.9902,347.8114 751.8805,356.3513 739.0058,364.1706 " fill="none" id="UserServiceImpl-&gt;EventRepository" style="stroke: #A80036; stroke-width: 1.0;"/><polygon fill="#A80036" points="734.6903,366.7926,744.4589,365.5378,738.9634,364.1963,740.3049,358.7008,734.6903,366.7926" style="stroke: #A80036; stroke-width: 1.0;"/><!--MD5=[e9b8add4e7b30476bd609a1d0ca5a0f6]
link UserServiceImpl to TicketRepository--><path d="M940.6438,290.7829 C996.0066,298.7884 1076.6055,313.866 1143,340 C1158.9635,346.2835 1175.3835,355.4068 1189.4839,364.2054 " fill="none" id="UserServiceImpl-&gt;TicketRepository" style="stroke: #A80036; stroke-width: 1.0;"/><polygon fill="#A80036" points="1193.7823,366.9221,1188.3115,358.7324,1189.5557,364.2508,1184.0374,365.4949,1193.7823,366.9221" style="stroke: #A80036; stroke-width: 1.0;"/><!--MD5=[dea929bccc733ea62024817fa4e7124e]
link UserServiceImpl to LocationRepository--><path d="M817.5105,307.1182 C809.0559,310.0913 800.3739,312.8384 792,315 C713.3693,335.2971 688.1002,314.4987 611,340 C593.102,345.9198 574.6462,355.261 558.941,364.3403 " fill="none" id="UserServiceImpl-&gt;LocationRepository" style="stroke: #A80036; stroke-width: 1.0;"/><polygon fill="#A80036" points="554.587,366.8912,564.3744,365.7929,558.9011,364.3637,560.3303,358.8903,554.587,366.8912" style="stroke: #A80036; stroke-width: 1.0;"/><!--MD5=[79141703ba48e9bf672fee824e914f67]
link ManagerServiceImpl to UserRepository--><path d="M629.0427,307.0176 C619.3765,309.987 609.4895,312.7598 600,315 C523.5343,333.0511 498.7525,312.9185 425,340 C409.3031,345.7638 393.4315,354.876 379.9477,363.8139 " fill="none" id="ManagerServiceImpl-&gt;UserRepository" style="stroke: #A80036; stroke-width: 1.0;"/><polygon fill="#A80036" points="375.4701,366.8332,385.1684,365.1179,379.6157,364.0378,380.6958,358.485,375.4701,366.8332" style="stroke: #A80036; stroke-width: 1.0;"/><!--MD5=[637cf0b9a7db95cf1c9227ac6e653b51]
link ManagerServiceImpl to LocationRepository--><path d="M656.0533,307.2373 C628.2268,324.1208 591.0966,346.6493 562.352,364.0898 " fill="none" id="ManagerServiceImpl-&gt;LocationRepository" style="stroke: #A80036; stroke-width: 1.0;"/><polygon fill="#A80036" points="557.8134,366.8436,567.5828,365.5947,562.0881,364.2499,563.4329,358.7552,557.8134,366.8436" style="stroke: #A80036; stroke-width: 1.0;"/><!--MD5=[752a8af581da2695d7c3197884771d36]
link ManagerServiceImpl to EventRepository--><path d="M695.7756,307.2373 C695.6263,323.3565 695.4294,344.6212 695.2714,361.6911 " fill="none" id="ManagerServiceImpl-&gt;EventRepository" style="stroke: #A80036; stroke-width: 1.0;"/><polygon fill="#A80036" points="695.2237,366.8436,699.3068,357.881,695.27,361.8438,691.3072,357.807,695.2237,366.8436" style="stroke: #A80036; stroke-width: 1.0;"/><!--MD5=[b3464a4e07707780d3e43fec6e5b8b42]
link ManagerServiceImpl to EventSlotRepository--><path d="M736.1711,307.2373 C764.1539,324.1208 801.4928,346.6493 830.3989,364.0898 " fill="none" id="ManagerServiceImpl-&gt;EventSlotRepository" style="stroke: #A80036; stroke-width: 1.0;"/><polygon fill="#A80036" points="834.963,366.8436,829.3234,358.7693,830.6819,364.2606,825.1906,365.6191,834.963,366.8436" style="stroke: #A80036; stroke-width: 1.0;"/><!--MD5=[78b47d792304c58996f80103a3992aeb]
link ManagerServiceImpl to ImageRepository--><path d="M762.9509,307.045 C772.618,310.0102 782.507,312.7747 792,315 C870.2077,333.3332 895.1912,313.4375 971,340 C987.6277,345.8262 1004.5894,355.0495 1019.0063,364.0604 " fill="none" id="ManagerServiceImpl-&gt;ImageRepository" style="stroke: #A80036; stroke-width: 1.0;"/><polygon fill="#A80036" points="1023.3956,366.846,1017.9401,358.6462,1019.174,364.1668,1013.6534,365.4007,1023.3956,366.846" style="stroke: #A80036; stroke-width: 1.0;"/><!--MD5=[81fb74dfd97f192005e4f1f3b5c1aff3]
link ManagerServiceImpl to ManagerLocationRepository--><path d="M631.0018,307.0639 C620.7405,310.1638 610.1629,312.9621 600,315 C452.7421,344.5288 409.0097,304.8148 263,340 C239.5115,345.6602 214.7324,355.375 193.7573,364.8171 " fill="none" id="ManagerServiceImpl-&gt;ManagerLocationRepository" style="stroke: #A80036; stroke-width: 1.0;"/><polygon fill="#A80036" points="189.0658,366.9528,198.9143,366.8643,193.6164,364.8811,195.5996,359.5833,189.0658,366.9528" style="stroke: #A80036; stroke-width: 1.0;"/><!--MD5=[ab05a706015f679ce4e93bf5fbf533b2]
link AdministratorServiceImpl to UserRepository--><path d="M456.4592,307.2373 C433.9781,323.9819 404.0423,346.2788 380.709,363.6582 " fill="none" id="AdministratorServiceImpl-&gt;UserRepository" style="stroke: #A80036; stroke-width: 1.0;"/><polygon fill="#A80036" points="376.4322,366.8436,386.0394,364.6754,380.4421,363.8569,381.2606,358.2595,376.4322,366.8436" style="stroke: #A80036; stroke-width: 1.0;"/><!--MD5=[dac6068fd0a78ef2de54729623f59f49]
link AdministratorServiceImpl to LocationRepository--><path d="M495.5082,307.2373 C499.8365,323.3565 505.5464,344.6212 510.13,361.6911 " fill="none" id="AdministratorServiceImpl-&gt;LocationRepository" style="stroke: #A80036; stroke-width: 1.0;"/><polygon fill="#A80036" points="511.5136,366.8436,513.0427,357.1142,510.2169,362.0147,505.3164,359.1889,511.5136,366.8436" style="stroke: #A80036; stroke-width: 1.0;"/><!--MD5=[136b7c814aed0e6c5128e51dcc1ffc8a]
link AdministratorServiceImpl to EventRepository--><path d="M543.6746,307.0102 C564.9442,316.7477 589.357,328.4179 611,340 C624.7849,347.3769 639.4646,356.0076 652.6321,364.0493 " fill="none" id="AdministratorServiceImpl-&gt;EventRepository" style="stroke: #A80036; stroke-width: 1.0;"/><polygon fill="#A80036" points="657.0361,366.7512,651.4565,358.6353,652.7743,364.1365,647.273,365.4542,657.0361,366.7512" style="stroke: #A80036; stroke-width: 1.0;"/><!--MD5=[a5cf56eda896f53f7a1b50eae2fa3428]
link AdministratorServiceImpl to EventSlotRepository--><path d="M567.1794,307.0371 C578.1395,309.9674 589.3092,312.7244 600,315 C678.5676,331.7233 702.5887,315.2239 779,340 C797.3788,345.9593 816.4107,355.3083 832.6341,364.3829 " fill="none" id="AdministratorServiceImpl-&gt;EventSlotRepository" style="stroke: #A80036; stroke-width: 1.0;"/><polygon fill="#A80036" points="837.1326,366.9321,831.2747,359.0147,832.7826,364.4669,827.3304,365.9747,837.1326,366.9321" style="stroke: #A80036; stroke-width: 1.0;"/><!--MD5=[57ed064afd367f051fe7c4ac20bb6ec2]
link AdministratorServiceImpl to ImageRepository--><path d="M564.326,307.0454 C576.1676,310.1478 588.3458,312.9517 600,315 C762.7679,343.6077 813.181,290.9596 971,340 C988.1257,345.3216 1005.4351,354.6541 1019.9908,363.8934 " fill="none" id="AdministratorServiceImpl-&gt;ImageRepository" style="stroke: #A80036; stroke-width: 1.0;"/><polygon fill="#A80036" points="1024.4164,366.7533,1019.0283,358.509,1020.2169,364.0396,1014.6863,365.2281,1024.4164,366.7533" style="stroke: #A80036; stroke-width: 1.0;"/><!--MD5=[593f6a668e8988b937270b69f5f8b92d]
link AdministratorServiceImpl to ManagerLocationRepository--><path d="M408.6776,307.0788 C398.7121,309.8557 388.641,312.562 379,315 C327.8702,327.9295 313.296,324.1335 263,340 C241.2628,346.8572 218.0478,356.1377 197.8251,364.9024 " fill="none" id="AdministratorServiceImpl-&gt;ManagerLocationRepository" style="stroke: #A80036; stroke-width: 1.0;"/><polygon fill="#A80036" points="193.0214,366.999,202.87,367.0651,197.604,364.999,199.67,359.7329,193.0214,366.999" style="stroke: #A80036; stroke-width: 1.0;"/><!--MD5=[bb1c40d805568be159e750ec79b16a3a]
link AuthenticationServiceImpl to UserRepository--><path d="M281.9536,307.2373 C294.0996,323.6345 310.1896,345.356 322.9409,362.5702 " fill="none" id="AuthenticationServiceImpl-&gt;UserRepository" style="stroke: #A80036; stroke-width: 1.0;"/><polygon fill="#A80036" points="326.1064,366.8436,323.9635,357.2307,323.1302,362.8258,317.5351,361.9926,326.1064,366.8436" style="stroke: #A80036; stroke-width: 1.0;"/><!--MD5=[45af6d58048f38d1672fe76222344100]
link UserRepository to UserDAO--><path d="M361.9536,415.2373 C374.0996,431.6345 390.1896,453.356 402.9409,470.5702 " fill="none" id="UserRepository-&gt;UserDAO" style="stroke: #A80036; stroke-width: 1.0;"/><polygon fill="#A80036" points="406.1064,474.8436,403.9635,465.2307,403.1302,470.8258,397.5351,469.9926,406.1064,474.8436" style="stroke: #A80036; stroke-width: 1.0;"/><!--MD5=[483d2f4862be81a24b80f43f47c8e579]
link ManagerLocationRepository to ManagerLocationDAO--><path d="M168.9303,415.2373 C187.4582,431.9124 212.1043,454.0939 231.3795,471.4416 " fill="none" id="ManagerLocationRepository-&gt;ManagerLocationDAO" style="stroke: #A80036; stroke-width: 1.0;"/><polygon fill="#A80036" points="235.1595,474.8436,231.1458,465.8497,231.4431,471.4987,225.794,471.796,235.1595,474.8436" style="stroke: #A80036; stroke-width: 1.0;"/><!--MD5=[aea32b65420d129e54260a59ff348e11]
link ImageRepository to ImageDAO--><path d="M1039.0464,415.2373 C1026.9004,431.6345 1010.8104,453.356 998.0591,470.5702 " fill="none" id="ImageRepository-&gt;ImageDAO" style="stroke: #A80036; stroke-width: 1.0;"/><polygon fill="#A80036" points="994.8936,474.8436,1003.4649,469.9926,997.8698,470.8258,997.0365,465.2307,994.8936,474.8436" style="stroke: #A80036; stroke-width: 1.0;"/><!--MD5=[b9220a6f2191f14d848e5cf96f28e685]
link EventRepository to EventDAO--><path d="M695,415.2373 C695,431.3565 695,452.6212 695,469.6911 " fill="none" id="EventRepository-&gt;EventDAO" style="stroke: #A80036; stroke-width: 1.0;"/><polygon fill="#A80036" points="695,474.8436,699,465.8436,695,469.8436,691,465.8436,695,474.8436" style="stroke: #A80036; stroke-width: 1.0;"/><!--MD5=[e1671d6ca94c2e21056541168b010121]
link EventSlotRepository to EventSlotDAO--><path d="M866.0232,415.2373 C860.0017,431.4955 852.0414,452.9882 845.692,470.1316 " fill="none" id="EventSlotRepository-&gt;EventSlotDAO" style="stroke: #A80036; stroke-width: 1.0;"/><polygon fill="#A80036" points="843.9468,474.8436,850.8238,467.7933,845.6835,470.1549,843.3219,465.0146,843.9468,474.8436" style="stroke: #A80036; stroke-width: 1.0;"/><!--MD5=[d7c496dfe484279d615ea83837f0ecb1]
link LocationRepository to LocationDAO--><path d="M526.9768,415.2373 C532.9983,431.4955 540.9586,452.9882 547.308,470.1316 " fill="none" id="LocationRepository-&gt;LocationDAO" style="stroke: #A80036; stroke-width: 1.0;"/><polygon fill="#A80036" points="549.0532,474.8436,549.6781,465.0146,547.3165,470.1549,542.1762,467.7933,549.0532,474.8436" style="stroke: #A80036; stroke-width: 1.0;"/><!--MD5=[249edbb2b5950a0369f9f4e0e7e66b49]
link TicketRepository to TicketDAO--><path d="M1201.0697,415.2373 C1182.5418,431.9124 1157.8957,454.0939 1138.6205,471.4416 " fill="none" id="TicketRepository-&gt;TicketDAO" style="stroke: #A80036; stroke-width: 1.0;"/><polygon fill="#A80036" points="1134.8405,474.8436,1144.206,471.796,1138.5569,471.4987,1138.8542,465.8497,1134.8405,474.8436" style="stroke: #A80036; stroke-width: 1.0;"/><!--MD5=[244d70dddb5cffaee67e610b9386bd7b]
@startuml
package "controller" #DDDDDD {
  class UserController  {
  }

  class ManagerController  {
  }

  class AdministratorController {
  }

  class AuthenticationController {
  }
}

package "service" #DDDDDD {
  interface UserService  {
  }

  interface ManagerService  {
  }

  interface AdministratorService {
  }

  interface AuthenticationService {
  }
}

package "serviceimpl" #DDDDDD {
  class UserServiceImpl  {
  }

  class ManagerServiceImpl  {
  }

  class AdministratorServiceImpl {
  }

  class AuthenticationServiceImpl {
  }
}

package "repository" #DDDDDD {
  interface UserRepository {
  }

  interface TicketRepository {
  }

  interface ManagerLocationRepository {
  }

  interface LocationRepository {
  }

  interface ImageRepository {
  }

  interface EventSlotRepository {
  }

  interface EventRepository {
  }
}

package "dao" #DDDDDD {
  interface UserDAO {
  }

  interface TicketDAO {
  }

  interface ManagerLocationDAO {
  }

  interface LocationDAO {
  }

  interface ImageDAO {
  }

  interface EventSlotDAO {
  }

  interface EventDAO {
  }
}

package "emailsystem" #DDDDDD {
  class EmailSystem {
  }
}

UserController - -> UserService
UserService - -> UserServiceImpl
ManagerController - -> ManagerService
ManagerService - -> ManagerServiceImpl
AdministratorController - -> AdministratorService
AdministratorService - -> AdministratorServiceImpl
AuthenticationController - -> AuthenticationService
AuthenticationService - -> AuthenticationServiceImpl
ManagerServiceImpl -left-> EmailSystem 
AdministratorServiceImpl -left-> EmailSystem 
UserServiceImpl -left-> EmailSystem 
UserServiceImpl - -> UserRepository
UserServiceImpl - -> ImageRepository
UserServiceImpl - -> EventSlotRepository
UserServiceImpl - -> EventRepository
UserServiceImpl - -> TicketRepository
UserServiceImpl - -> LocationRepository
ManagerServiceImpl - -> UserRepository
ManagerServiceImpl - -> LocationRepository
ManagerServiceImpl - -> EventRepository
ManagerServiceImpl - -> EventSlotRepository
ManagerServiceImpl - -> ImageRepository
ManagerServiceImpl - -> ManagerLocationRepository
AdministratorServiceImpl - -> UserRepository
AdministratorServiceImpl - -> LocationRepository
AdministratorServiceImpl - -> EventRepository
AdministratorServiceImpl - -> EventSlotRepository
AdministratorServiceImpl - -> ImageRepository
AdministratorServiceImpl - -> ManagerLocationRepository
AuthenticationServiceImpl - -> UserRepository
UserRepository - -> UserDAO
ManagerLocationRepository - -> ManagerLocationDAO
ImageRepository - -> ImageDAO
EventRepository - -> EventDAO
EventSlotRepository - -> EventSlotDAO
LocationRepository - -> LocationDAO
TicketRepository - -> TicketDAO
@enduml

PlantUML version 1.2019.12(Sun Nov 03 10:24:54 UTC 2019)
(GPL source distribution)
Java Runtime: OpenJDK Runtime Environment
JVM: OpenJDK 64-Bit Server VM
Java Version: 1.8.0_232-heroku-b09
Operating System: Linux
Default Encoding: UTF-8
Language: en
Country: US
--></g></svg>