<?xml version="1.0" encoding="UTF-8" standalone="no"?><svg xmlns="http://www.w3.org/2000/svg" xmlns:xlink="http://www.w3.org/1999/xlink" contentScriptType="application/ecmascript" contentStyleType="text/css" height="527px" preserveAspectRatio="none" style="width:411px;height:527px;" version="1.1" viewBox="0 0 411 527" width="411px" zoomAndPan="magnify"><defs><filter height="300%" id="fc15pjarhqvxc" width="300%" x="-1" y="-1"><feGaussianBlur result="blurOut" stdDeviation="2.0"/><feColorMatrix in="blurOut" result="blurOut2" type="matrix" values="0 0 0 0 0 0 0 0 0 0 0 0 0 0 0 0 0 0 .4 0"/><feOffset dx="4.0" dy="4.0" in="blurOut2" result="blurOut3"/><feBlend in="SourceGraphic" in2="blurOut3" mode="normal"/></filter></defs><g><!--MD5=[3fd616f346a44cd59a91eb10b19e157c]
class User--><rect fill="#FEFECE" filter="url(#fc15pjarhqvxc)" height="137.6328" id="User" style="stroke: #A80036; stroke-width: 1.5;" width="109" x="72.5" y="206"/><ellipse cx="109.1" cy="222" fill="#ADD1B2" rx="11" ry="11" style="stroke: #A80036; stroke-width: 1.0;"/><path d="M113.2094,228 L105.4906,228 L105.4906,215.6094 L113.2094,215.6094 L113.2094,217.7656 L107.9438,217.7656 L107.9438,220.4375 L112.7094,220.4375 L112.7094,222.5938 L107.9438,222.5938 L107.9438,225.8438 L113.2094,225.8438 L113.2094,228 Z "/><text fill="#000000" font-family="sans-serif" font-size="12" lengthAdjust="spacingAndGlyphs" textLength="29" x="127.9" y="226.1543">User</text><line style="stroke: #A80036; stroke-width: 1.5;" x1="73.5" x2="180.5" y1="238" y2="238"/><ellipse cx="83.5" cy="249" fill="none" rx="3" ry="3" style="stroke: #038048; stroke-width: 1.0;"/><text fill="#000000" font-family="sans-serif" font-size="11" lengthAdjust="spacingAndGlyphs" textLength="58" x="92.5" y="252.2104">id: integer</text><line style="stroke: #A80036; stroke-width: 1.0;" x1="73.5" x2="180.5" y1="258.8047" y2="258.8047"/><text fill="#000000" font-family="sans-serif" font-size="11" lengthAdjust="spacingAndGlyphs" textLength="72" x="78.5" y="273.0151">email: string</text><text fill="#000000" font-family="sans-serif" font-size="11" lengthAdjust="spacingAndGlyphs" textLength="97" x="78.5" y="285.8198">password: string</text><text fill="#000000" font-family="sans-serif" font-size="11" lengthAdjust="spacingAndGlyphs" textLength="73" x="78.5" y="298.6245">name: string</text><text fill="#000000" font-family="sans-serif" font-size="11" lengthAdjust="spacingAndGlyphs" textLength="92" x="78.5" y="311.4292">surname: string</text><text fill="#000000" font-family="sans-serif" font-size="11" lengthAdjust="spacingAndGlyphs" textLength="75" x="78.5" y="324.2339">cellNo: string</text><text fill="#000000" font-family="sans-serif" font-size="11" lengthAdjust="spacingAndGlyphs" textLength="63" x="78.5" y="337.0386">role: string</text><!--MD5=[4f1f3706c1a355a8488e154afcaed5df]
class Location--><rect fill="#FEFECE" filter="url(#fc15pjarhqvxc)" height="112.0234" id="Location" style="stroke: #A80036; stroke-width: 1.5;" width="100" x="6" y="21"/><ellipse cx="27.75" cy="37" fill="#ADD1B2" rx="11" ry="11" style="stroke: #A80036; stroke-width: 1.0;"/><path d="M31.8594,43 L24.1406,43 L24.1406,30.6094 L31.8594,30.6094 L31.8594,32.7656 L26.5938,32.7656 L26.5938,35.4375 L31.3594,35.4375 L31.3594,37.5938 L26.5938,37.5938 L26.5938,40.8438 L31.8594,40.8438 L31.8594,43 Z "/><text fill="#000000" font-family="sans-serif" font-size="12" lengthAdjust="spacingAndGlyphs" textLength="53" x="43.25" y="41.1543">Location</text><line style="stroke: #A80036; stroke-width: 1.5;" x1="7" x2="105" y1="53" y2="53"/><ellipse cx="17" cy="64" fill="none" rx="3" ry="3" style="stroke: #038048; stroke-width: 1.0;"/><text fill="#000000" font-family="sans-serif" font-size="11" lengthAdjust="spacingAndGlyphs" textLength="58" x="26" y="67.2104">id: integer</text><line style="stroke: #A80036; stroke-width: 1.0;" x1="7" x2="105" y1="73.8047" y2="73.8047"/><text fill="#000000" font-family="sans-serif" font-size="11" lengthAdjust="spacingAndGlyphs" textLength="60" x="12" y="88.0151">city: string</text><text fill="#000000" font-family="sans-serif" font-size="11" lengthAdjust="spacingAndGlyphs" textLength="88" x="12" y="100.8198">address: string</text><text fill="#000000" font-family="sans-serif" font-size="11" lengthAdjust="spacingAndGlyphs" textLength="73" x="12" y="113.6245">name: string</text><text fill="#000000" font-family="sans-serif" font-size="11" lengthAdjust="spacingAndGlyphs" textLength="58" x="12" y="126.4292">valid: bool</text><!--MD5=[ac6bea31e13c94c7baa9ad18feb7405e]
class Ticket--><rect fill="#FEFECE" filter="url(#fc15pjarhqvxc)" height="112.0234" id="Ticket" style="stroke: #A80036; stroke-width: 1.5;" width="131" x="136.5" y="404"/><ellipse cx="179.4" cy="420" fill="#ADD1B2" rx="11" ry="11" style="stroke: #A80036; stroke-width: 1.0;"/><path d="M183.5094,426 L175.7906,426 L175.7906,413.6094 L183.5094,413.6094 L183.5094,415.7656 L178.2438,415.7656 L178.2438,418.4375 L183.0094,418.4375 L183.0094,420.5938 L178.2438,420.5938 L178.2438,423.8438 L183.5094,423.8438 L183.5094,426 Z "/><text fill="#000000" font-family="sans-serif" font-size="12" lengthAdjust="spacingAndGlyphs" textLength="37" x="199.6" y="424.1543">Ticket</text><line style="stroke: #A80036; stroke-width: 1.5;" x1="137.5" x2="266.5" y1="436" y2="436"/><ellipse cx="147.5" cy="447" fill="none" rx="3" ry="3" style="stroke: #038048; stroke-width: 1.0;"/><text fill="#000000" font-family="sans-serif" font-size="11" lengthAdjust="spacingAndGlyphs" textLength="58" x="156.5" y="450.2104">id: integer</text><line style="stroke: #A80036; stroke-width: 1.0;" x1="137.5" x2="266.5" y1="456.8047" y2="456.8047"/><text fill="#000000" font-family="sans-serif" font-size="11" lengthAdjust="spacingAndGlyphs" textLength="60" x="142.5" y="471.0151">used: bool</text><text fill="#000000" font-family="sans-serif" font-size="11" lengthAdjust="spacingAndGlyphs" textLength="68" x="142.5" y="483.8198">code: string</text><text fill="#000000" font-family="sans-serif" font-size="11" lengthAdjust="spacingAndGlyphs" textLength="92" x="142.5" y="496.6245">userRef: integer</text><text fill="#000000" font-family="sans-serif" font-size="11" lengthAdjust="spacingAndGlyphs" textLength="119" x="142.5" y="509.4292">eventSlotRef: integer</text><!--MD5=[ac13618b1a974308c1f12eb6c57723dc]
class Event--><rect fill="#FEFECE" filter="url(#fc15pjarhqvxc)" height="137.6328" id="Event" style="stroke: #A80036; stroke-width: 1.5;" width="122" x="141" y="8"/><ellipse cx="180.75" cy="24" fill="#ADD1B2" rx="11" ry="11" style="stroke: #A80036; stroke-width: 1.0;"/><path d="M184.8594,30 L177.1406,30 L177.1406,17.6094 L184.8594,17.6094 L184.8594,19.7656 L179.5938,19.7656 L179.5938,22.4375 L184.3594,22.4375 L184.3594,24.5938 L179.5938,24.5938 L179.5938,27.8438 L184.8594,27.8438 L184.8594,30 Z "/><text fill="#000000" font-family="sans-serif" font-size="12" lengthAdjust="spacingAndGlyphs" textLength="35" x="200.25" y="28.1543">Event</text><line style="stroke: #A80036; stroke-width: 1.5;" x1="142" x2="262" y1="40" y2="40"/><ellipse cx="152" cy="51" fill="none" rx="3" ry="3" style="stroke: #038048; stroke-width: 1.0;"/><text fill="#000000" font-family="sans-serif" font-size="11" lengthAdjust="spacingAndGlyphs" textLength="58" x="161" y="54.2104">id: integer</text><line style="stroke: #A80036; stroke-width: 1.0;" x1="142" x2="262" y1="60.8047" y2="60.8047"/><text fill="#000000" font-family="sans-serif" font-size="11" lengthAdjust="spacingAndGlyphs" textLength="62" x="147" y="75.0151">title: string</text><text fill="#000000" font-family="sans-serif" font-size="11" lengthAdjust="spacingAndGlyphs" textLength="104" x="147" y="87.8198">description: string</text><text fill="#000000" font-family="sans-serif" font-size="11" lengthAdjust="spacingAndGlyphs" textLength="69" x="147" y="100.6245">titolo: string</text><text fill="#000000" font-family="sans-serif" font-size="11" lengthAdjust="spacingAndGlyphs" textLength="105" x="147" y="113.4292">descrizione: string</text><text fill="#000000" font-family="sans-serif" font-size="11" lengthAdjust="spacingAndGlyphs" textLength="110" x="147" y="126.2339">locationRef: integer</text><text fill="#000000" font-family="sans-serif" font-size="11" lengthAdjust="spacingAndGlyphs" textLength="101" x="147" y="139.0386">imageRef: integer</text><!--MD5=[964f074a2dd77d134c21b891bb53e381]
class Image--><rect fill="#FEFECE" filter="url(#fc15pjarhqvxc)" height="86.4141" id="Image" style="stroke: #A80036; stroke-width: 1.5;" width="102" x="298" y="34"/><ellipse cx="327.4" cy="50" fill="#ADD1B2" rx="11" ry="11" style="stroke: #A80036; stroke-width: 1.0;"/><path d="M331.5094,56 L323.7906,56 L323.7906,43.6094 L331.5094,43.6094 L331.5094,45.7656 L326.2438,45.7656 L326.2438,48.4375 L331.0094,48.4375 L331.0094,50.5938 L326.2438,50.5938 L326.2438,53.8438 L331.5094,53.8438 L331.5094,56 Z "/><text fill="#000000" font-family="sans-serif" font-size="12" lengthAdjust="spacingAndGlyphs" textLength="38" x="344.6" y="54.1543">Image</text><line style="stroke: #A80036; stroke-width: 1.5;" x1="299" x2="399" y1="66" y2="66"/><ellipse cx="309" cy="77" fill="none" rx="3" ry="3" style="stroke: #038048; stroke-width: 1.0;"/><text fill="#000000" font-family="sans-serif" font-size="11" lengthAdjust="spacingAndGlyphs" textLength="58" x="318" y="80.2104">id: integer</text><line style="stroke: #A80036; stroke-width: 1.0;" x1="299" x2="399" y1="86.8047" y2="86.8047"/><text fill="#000000" font-family="sans-serif" font-size="11" lengthAdjust="spacingAndGlyphs" textLength="90" x="304" y="101.0151">filename: string</text><text fill="#000000" font-family="sans-serif" font-size="11" lengthAdjust="spacingAndGlyphs" textLength="67" x="304" y="113.8198">image: blob</text><!--MD5=[695d18d63b9d33e535e9abf9d840a359]
class EventSlot--><rect fill="#FEFECE" filter="url(#fc15pjarhqvxc)" height="137.6328" id="EventSlot" style="stroke: #A80036; stroke-width: 1.5;" width="122" x="217" y="206"/><ellipse cx="245.95" cy="222" fill="#ADD1B2" rx="11" ry="11" style="stroke: #A80036; stroke-width: 1.0;"/><path d="M250.0594,228 L242.3406,228 L242.3406,215.6094 L250.0594,215.6094 L250.0594,217.7656 L244.7938,217.7656 L244.7938,220.4375 L249.5594,220.4375 L249.5594,222.5938 L244.7938,222.5938 L244.7938,225.8438 L250.0594,225.8438 L250.0594,228 Z "/><text fill="#000000" font-family="sans-serif" font-size="12" lengthAdjust="spacingAndGlyphs" textLength="59" x="263.05" y="226.1543">EventSlot</text><line style="stroke: #A80036; stroke-width: 1.5;" x1="218" x2="338" y1="238" y2="238"/><ellipse cx="228" cy="249" fill="none" rx="3" ry="3" style="stroke: #038048; stroke-width: 1.0;"/><text fill="#000000" font-family="sans-serif" font-size="11" lengthAdjust="spacingAndGlyphs" textLength="58" x="237" y="252.2104">id: integer</text><line style="stroke: #A80036; stroke-width: 1.0;" x1="218" x2="338" y1="258.8047" y2="258.8047"/><text fill="#000000" font-family="sans-serif" font-size="11" lengthAdjust="spacingAndGlyphs" textLength="97" x="223" y="273.0151">eventRef: integer</text><text fill="#000000" font-family="sans-serif" font-size="11" lengthAdjust="spacingAndGlyphs" textLength="66" x="223" y="285.8198">date: string</text><text fill="#000000" font-family="sans-serif" font-size="11" lengthAdjust="spacingAndGlyphs" textLength="96" x="223" y="298.6245">startTime: string</text><text fill="#000000" font-family="sans-serif" font-size="11" lengthAdjust="spacingAndGlyphs" textLength="90" x="223" y="311.4292">endTime: string</text><text fill="#000000" font-family="sans-serif" font-size="11" lengthAdjust="spacingAndGlyphs" textLength="110" x="223" y="324.2339">maxPeople: integer</text><text fill="#000000" font-family="sans-serif" font-size="11" lengthAdjust="spacingAndGlyphs" textLength="58" x="223" y="337.0386">valid: bool</text><!--MD5=[fe340a176778ece697f4667b341e1213]
reverse link Event to User--><path d="M173.8714,151.2594 C167.1012,169.1327 159.8956,188.1556 153.2165,205.7883 " fill="none" id="Event&lt;-User" style="stroke: #A80036; stroke-width: 1.0;"/><polygon fill="#A80036" points="175.7686,146.2508,168.8399,153.2503,173.9975,150.9266,176.3212,156.0841,175.7686,146.2508" style="stroke: #A80036; stroke-width: 1.0;"/><!--MD5=[a5ba9cae2aeacb9998f8b3fe113b9ddd]
reverse link Location to Event--><path d="M111.3541,77 C121.2342,77 131.1143,77 140.9944,77 " fill="none" id="Location&lt;-Event" style="stroke: #A80036; stroke-width: 1.0;"/><polygon fill="#A80036" points="106.1875,77,115.1875,81,111.1875,77,115.1875,73,106.1875,77" style="stroke: #A80036; stroke-width: 1.0;"/><!--MD5=[f4ac5664b5dc62c5f76e267561a42d6b]
reverse link User to Ticket--><path d="M156.9167,348.7944 C164.3605,367.1559 172.2203,386.5435 179.2558,403.8976 " fill="none" id="User&lt;-Ticket" style="stroke: #A80036; stroke-width: 1.0;"/><polygon fill="#A80036" points="155.0339,344.1503,154.7084,353.9938,156.9125,348.784,162.1223,350.9881,155.0339,344.1503" style="stroke: #A80036; stroke-width: 1.0;"/><!--MD5=[cc5173eb2f0381f82b0adffd3d9d853a]
reverse link EventSlot to Ticket--><path d="M247.6844,348.7944 C240.1414,367.1559 232.1767,386.5435 225.0475,403.8976 " fill="none" id="EventSlot&lt;-Ticket" style="stroke: #A80036; stroke-width: 1.0;"/><polygon fill="#A80036" points="249.5923,344.1503,242.4723,350.9551,247.6923,348.7752,249.8722,353.9952,249.5923,344.1503" style="stroke: #A80036; stroke-width: 1.0;"/><!--MD5=[ccc5c761187370a858bdf47af83547b2]
reverse link Event to EventSlot--><path d="M230.5036,151.2594 C237.3641,169.1327 244.6658,188.1556 251.4339,205.7883 " fill="none" id="Event&lt;-EventSlot" style="stroke: #A80036; stroke-width: 1.0;"/><polygon fill="#A80036" points="228.5811,146.2508,228.0721,156.0865,230.3729,150.9187,235.5407,153.2196,228.5811,146.2508" style="stroke: #A80036; stroke-width: 1.0;"/><!--MD5=[3afd4a24c399badd403cc24632650af3]
reverse link Event to Image--><path d="M268.2813,77 C278.0854,77 287.8896,77 297.6938,77 " fill="none" id="Event&lt;-Image" style="stroke: #A80036; stroke-width: 1.0;"/><polygon fill="#A80036" points="263.1543,77,272.1543,81,268.1543,77,272.1543,73,263.1543,77" style="stroke: #A80036; stroke-width: 1.0;"/><!--MD5=[64ba63ca61c78823adf4ddd1012251c3]
@startuml
entity User  {
  + id: integer
  - - -
  email: string
  password: string
  name: string
  surname: string 
  cellNo: string
  role: string
}

entity Location {
  + id: integer
  - - -
  city: string
  address: string
  name: string
  valid: bool
}

entity Ticket {
  + id: integer
  - - -
  used: bool
  code: string
  userRef: integer
  eventSlotRef: integer
}

entity Event {
  + id: integer
  - - -
  title: string
  description: string
  titolo: string
  descrizione: string
  locationRef: integer
  imageRef: integer
}

entity Image {
  +id: integer
  - - -
  filename: string
  image: blob
}

entity EventSlot {
  + id: integer
  - - -
  eventRef: integer
  date: string
  startTime: string
  endTime: string
  maxPeople: integer
  valid: bool
}

Event <- - User
Location <-left- Event
User <- - Ticket
EventSlot <- - Ticket
Event <- - EventSlot
Image -left-> Event
@enduml

PlantUML version 1.2019.12(Sun Nov 03 10:24:54 UTC 2019)
(GPL source distribution)
Java Runtime: OpenJDK Runtime Environment
JVM: OpenJDK 64-Bit Server VM
Java Version: 1.8.0_232-heroku-b09
Operating System: Linux
Default Encoding: UTF-8
Language: en
Country: US
--></g></svg>
